Waveform_Captures/gravitest_2.csv

#Digilent WaveForms Oscilloscope Acquisition
#Device Name: Discovery2
#Serial Number: SN:210321AE0916
#Date Time: 2020-05-11 21:35:02.172
#Sample rate: 800000Hz
#Samples: 8192
#Trigger: Source: Patterns Condition: Rising
#Channel 1: Range: 200 mV/div Offset: 0 V Attenuation: 1 X
#Power Supplies: OFF
#Positive Supply: Rdy
#Voltage: 5 V
#Negative Supply: OFF
#Voltage: -5 V

Time (s),Channel 1 (V)
0.04713,0.109691080576513
0.04713125,0.1416729383958562
0.0471325,0.01407865146987176
0.04713375,-0.1258419764899435
0.047135,-0.1295065643654113
0.04713625,0.01174664100418238
0.0471375,0.1403403609868655
0.04713875,0.121017988553982
0.04714,-0.0258986708045475
0.04714125,-0.1441649158658199
0.0471425,-0.144831204570608
0.04714375,0.004084320901632431
0.047145,0.1056933483489993
0.04714625,0.06338401560834234
0.04714749999999999,-0.06520970437377359
0.04714875,-0.146830070684218
0.04715,-0.06987372530611602
0.04715125,0.08870298638249192
0.0471525,0.1559981455441871
0.04715374999999999,0.05971942773374274
0.047155,-0.09252754126130575
0.04715625,-0.1378351731725448
0.0471575,-0.01990207246306261
0.04715875,0.1380083505209146
0.04716,0.1666587648172607
0.04716124999999999,0.0440616431762797
0.0471625,-0.090195530795392
0.04716375,-0.08586465421584888
0.047165,0.01241292970881201
0.04716625,0.1356763400548438
0.0471675,0.1223505659630201
0.04716875,-0.01557119588308346
0.04717,-0.1418329053999127
0.04717125,-0.1138487798079372
0.0471725,0.03773190048265467
0.04717375,0.1506678359076743
0.04717499999999999,0.1070259257583034
0.04717625,-0.04855248675951425
0.0471775,-0.150161514207151
0.04717875,-0.09252754126152664
0.04718,0.03073586908462664
0.04718124999999999,0.1020287604736753
0.0471825,0.0300695803800867
0.04718375,-0.1008561500686334
0.047185,-0.1471632150366162
0.04718625,-0.05654795121447097
0.0471875,0.09569901778055086
0.04718875,0.1493352584983555
0.04719,0.05005824151734373
0.04719125,-0.1005230057163972
0.0471925,-0.1388346062293933
0.04719375,-0.02190093857657473
0.047195,0.1310123191229174
0.04719625,0.1593295890671657
0.0471975,0.04272906576701285
0.04719875,-0.09652527348902416
0.0472,-0.09985671701176449
0.04720125,0.04039705530103291
0.04720249999999999,0.1430055158048974
0.04720375,0.1266814425431544
0.047205,-0.01457176282634551
0.04720625,-0.1335042965928523
0.0472075,-0.1215110999103352
0.04720875,0.02373983768677873
0.04721,0.1433386601571922
0.04721125,0.1136888128039804
0.0472125,-0.03289470220218073
0.04721375,-0.1468300706842933
0.047215,-0.1071858927619196
0.04721625,0.0477262310513238
0.0472175,0.1093579362240996
0.04721875,0.04705994234663872
0.04722,-0.1028550161824732
0.04722125,-0.1708164640488609
0.0472225,-0.08486522115862598
0.04722374999999999,0.07371149052916462
0.047225,0.1546655681351046
0.04722625,0.07670978970014175
0.0472275,-0.07820233411328227
0.04722875,-0.1474963593887423
0.04722999999999999,-0.05921310603314463
0.04723125,0.1026950491781814
0.0472325,0.1633273212946164
0.04723375,0.07504406793867237
0.047235,-0.07187259141984841
0.04723625,-0.1231768216717045
0.0472375,-0.007575731427960403
0.04723875,0.1466701036801216
0.04724,0.1566644342489312
0.04724125,0.03273473519818164
0.0472425,-0.1178465120354132
0.04724375,-0.1431654828088675
0.047245,-0.0305626917364447
0.04724625,0.1163539676221006
0.0472475,0.1406735053391699
0.04724875,0.0214078272203702
0.04725,-0.1205116668537039
0.04725124999999999,-0.1375020288202529
0.0472525,-0.01024088624691932
0.04725375,0.1226837103156228
0.047255,0.08970241943922959
0.04725625,-0.04555418758932265
0.04725749999999999,-0.1754804849805796
0.04725875,-0.1498283698549688
0.04726,0.006749475719738135
0.04726125,0.1386746392254491
0.0472625,0.1286803086567185
0.04726375,-0.01090717495154775
0.047265,-0.1365025957633952
0.04726625,-0.1205116668537021
0.0472675,0.02640499250473431
0.04726875,0.1513341246123383
0.04727,0.1320117521795265
0.04727125,-0.004910576610419934
0.0472725,-0.1205116668534102
0.04727375,-0.09219439690933454
0.047275,0.074044634881812
0.04727625,0.1833159824318201
0.0472775,0.1186859780879521
0.04727874999999999,-0.04055702230440905
0.04728,-0.1541592464344321
0.04728125,-0.1075190371145306
0.0472825,0.04239592141461548
0.04728375,0.1490021141462769
0.047285,0.1030281935304218
0.04728624999999999,-0.04688676499795169
0.0472875,-0.1504946585593427
0.04728875,-0.1018555831256349
0.04729,0.05205710763096721
0.04729125,0.1436718045095843
0.0472925,0.05205710763046576
0.04729375,-0.1011892944207605
0.047295,-0.1968017235272608
0.04729625,-0.1131824911033636
0.0472975,0.06005257208589591
0.04729875,0.1546655681350703
0.04729999999999999,0.09103499684858293
0.04730125,-0.06054568344184412
0.0473025,-0.1514940916163031
0.04730375,-0.08686408727263563
0.047305,0.07071319135911136
0.04730624999999999,0.1626610325898052
0.0473075,0.1003630387125817
0.04730875,-0.04455475453215321
0.04731,-0.1305059974222767
0.04731125,-0.06221140520332549
0.0473125,0.1130225240994972
0.04731375,0.1849817041930117
0.047315,0.09036870814399375
0.04731625,-0.07087315836286805
0.0473175,-0.1591564117189068
0.04731875,-0.08486522115877702
0.04732,0.06871432524541728
0.04732125,0.1539992794304476
0.0473225,0.08037437757532795
0.04732375,-0.07087315836294139
0.047325,-0.1524935246731405
0.04732625,-0.08186692198812669
0.04732749999999999,0.07137948006309953
0.04732875,0.1443380932141918
0.04733,0.03506674566430733
0.04733125,-0.1181796563877017
0.0473325,-0.1978011565840741
0.04733375,-0.09952357265921365
0.047335,0.07271205747227322
0.04733625,0.1553318568396759
0.0473375,0.08170695498440815
0.04733875,-0.06954058095386877
0.04734,-0.1514940916162196
0.04734125,-0.08286635504483678
0.0473425,0.07437777923381277
0.04734375,0.1619947438854447
0.047345,0.09903046130325545
0.04734625,-0.04555418758925447
0.0473475,-0.1255088321378347
0.04734875,-0.06387712696505893
0.04735,0.1136888128036977
0.04735125,0.1813171163181274
0.0473525,0.09370015166658713
0.04735375,-0.06620913743109177
0.04735499999999999,-0.1571575456049717
0.04735625,-0.09119496385255553
0.0473575,0.05871999467648335
0.04735875,0.1513341246123471
0.04736,0.09170128555280867
0.04736125,-0.05721423991939436
0.04736249999999999,-0.1501615142069859
0.04736375,-0.09719156219367001
0.047365,0.05172396327852939
0.04736625,0.1390077835776968
0.0473675,0.05305654068747096
0.04736875,-0.09719156219386225
0.04737,-0.1941365687088771
0.04737125,-0.1168470789785886
0.0473725,0.04472793188057453
0.04737375,0.1486689697940143
0.047375,0.1063596370533011
0.04737624999999999,-0.03855815619079329
0.0473775,-0.1444980602181773
0.04737875,-0.1078521814667917
0.04738,0.04239592141461866
0.04738125,0.1559981455443258
0.04738249999999999,0.1293465973615039
0.04738375,-0.006576298371343797
0.047385,-0.1201785225012829
0.04738625,-0.09585898478445058
0.0473875,0.06971375830217039
0.04738875,0.1649930430560352
0.04739,0.1263482981903745
0.04739125,-0.01923578375829041
0.0473925,-0.1411666166953985
0.04739375,-0.126175120842489
0.047395,0.004417465254047538
0.04739625,0.1323448965319933
0.0473975,0.1293465973614258
0.04739875,0.003418032197127163
0.0474,-0.131505430479137
0.04740125,-0.1371688844678973
0.0474025,-0.01057403059881193
0.04740374999999999,0.110690513633028
0.047405,0.09003556379161545
0.04740625,-0.03056269173618502
0.0474075,-0.163154143946378
0.04740875,-0.1541592464344642
0.04741,-0.02623181515618665
0.04741125,0.1166871119741961
0.0474125,0.1476695367371502
0.04741375,0.03806504483483874
0.047415,-0.1061864597053792
0.04741625,-0.1481626480932832
0.0474175,-0.04188959971357167
0.04741875,0.1116899466899398
0.04742,0.1666587648174895
0.04742125,0.07904180016604642
0.0474225,-0.06920743660159152
0.04742375,-0.1308391417743014
0.04742499999999999,-0.01557119588359644
0.04742625,0.1083585031671822
0.0474275,0.1576638673057737
0.04742875,0.07104633571109577
0.04743,-0.07753604540881473
0.04743124999999999,-0.153159813377572
0.0474325,-0.08886295338654497
0.04743375,0.06338401560849626
0.047435,0.1539992794306415
0.04743625,0.09469958472345841
0.0474375,-0.05321650769196577
0.04743874999999999,-0.151827235968407
0.04744,-0.106852748409976
0.04744125,0.02240726027730085
0.0474425,0.0976978838941595
0.04744375,0.06571602607446
0.047445,-0.06787485919258025
0.04744625,-0.1484957924456167
0.0474475,-0.1198453781491255
0.04744875,0.01641066193619743
0.04745,0.1373420618162932
0.04745125,0.1276808755997572
0.04745249999999999,0.002418599140494054
0.04745375,-0.1278408426038047
0.047455,-0.131838574831422
0.04745625,-0.001579133087224657
0.0474575,0.1403403609869149
0.04745874999999999,0.1636604656468841
0.04746,0.05072453022199351
0.04746125,-0.08986238644316052
0.0474625,-0.09519269607987701
0.04746375,-0.02223408292895318
0.047465,0.1063596370537057
0.04746625,0.1476695367369379
0.0474675,0.0543891180970611
0.04746875,-0.09086181950008268
0.04747,-0.1561581125483216
0.04747125,-0.0728720244764576
0.0474725,0.07704293405256429
0.04747375,0.1523335576690363
0.047475,0.08603783156422685
0.04747625,-0.06054568344205091
0.0474775,-0.1514940916163138
0.04747875,-0.1178465120351636
0.04747999999999999,0.0004197330261088567
0.04748125,0.1000298943600004
0.0474825,0.06904746959753832
0.04748375,-0.03522671266830173
0.047485,-0.1381683175248492
0.04748625,-0.120844811205656
0.04748749999999999,0.01274607406073898
0.04748875,0.1343437626455549
0.04749,0.1313454634751411
0.04749125,0.009414630538059113
0.0474925,-0.1178465120353963
0.04749375,-0.1275076982513665
0.047495,-0.006909442724097187
0.04749625,0.1353431957024519
0.0474975,0.1703233526926941
0.04749875,0.0667154591313472
0.0475,-0.04721990935077477
0.04750124999999999,-0.1331711522403756
0.0475025,-0.06021253908986365
0.04750375,0.08137381063205698
0.047505,0.1496684028508803
0.04750625,0.07737607840441264
0.04750749999999999,-0.06954058095339338
0.04750875,-0.1528266690253401
0.04751,-0.09585898478450239
0.04751125,0.05172396327859711
0.0475125,0.151334124612309
0.04751375,0.109357936223892
0.047515,-0.03122898044123658
0.04751625,-0.164153577003061
0.0475175,-0.1738147632195549
0.04751875,-0.03989073360020862
0.04752,0.09503272907592882
0.04752125,0.131012319122533
0.0475225,0.01374550711811642
0.04752375,-0.1188459450921185
0.047525,-0.1428323384568879
0.04752625,-0.0335609909066916
0.0475275,0.1086916475197169
0.04752874999999999,0.1520004133168025
0.04753,0.06338401560875562
0.04753125,-0.07620346799946655
0.0475325,-0.1355031627065419
0.04753375,-0.05488222945297143
0.047535,0.09469958472378232
0.04753625,0.1779856727951009
0.0475375,0.1503346915555119
0.04753875,-0.02856382562251913
0.04754,-0.1481626480934535
0.04754125,-0.1228436773194157
0.0475425,0.02274040462997184
0.04754375,0.1420060827481001
0.047545,0.1266814425431317
0.04754625,-0.003244854848780559
0.0475475,-0.1295065643654304
0.04754875,-0.1398340392860417
0.04755,-0.02323351598619562
0.04755125,0.1150213902128985
0.0475525,0.1466701036803177
0.04755375,0.02240726027720784
0.047555,-0.1444980602184237
0.04755624999999999,-0.2004663114023497
0.0475575,-0.1098510475806606
0.04755875,0.07204576876792584
0.04756,0.1526667020214943
0.04756125,0.0937001516665394
0.0475625,-0.04788619805537713
0.04756374999999999,-0.1464969263318184
0.047565,-0.1118499136942637
0.04756625,0.03040272473217788
0.0475675,0.1463369593280426
0.04756875,0.1403403609866649
0.04757,0.02040839416329804
0.04757125,-0.1045207379436799
0.0475725,-0.1208448112059449
0.04757375,-0.006576298371591035
0.047575,0.1669919091698283
0.04757625,0.16932391963558
0.04757749999999999,0.05772056162001307
0.04757875,-0.09552584043195474
0.04758,-0.1581569786620518
0.04758125,-0.08386578810205844
0.0475825,0.06504973737019003
0.04758374999999999,0.1539992794303583
0.047585,0.1046939152922863
0.04758625,-0.0368924344295601
0.0475875,-0.1474963593889029
0.04758875,-0.1265082651947119
0.04759,0.009081486186060165
0.04759125,0.1036944822352959
0.0475925,0.09103499684845553
0.04759375,-0.02523238209959837
0.047595,-0.1511609472640588
0.04759625,-0.1538261020822065
0.0475975,-0.04721990935025135
0.04759875,0.09703159518927246
0.0476,0.1546655681351626
0.04760125,0.07637664534781952
0.0476025,-0.06654228178328979
0.04760375,-0.1508278029116684
0.04760499999999999,-0.09452640737545706
0.04760625,0.05272339633518963
0.0476075,0.1666587648174876
0.04760875,0.1456706706234119
0.04761,0.0140786514700222
0.04761125,-0.1088516145235808
0.0476125,-0.08486522115904108
0.04761375,-0.007908875780843178
0.047615,0.1133556684516531
0.04761625,0.1423392271005244
0.0476175,0.05505540680120261
0.04761875,-0.08919609773889296
0.04762,-0.1544923907868067
0.04762125,-0.08519836551133635
0.0476225,0.05871999467666134
0.04762375,0.1503346915554322
0.047625,0.1103573692807592
0.04762624999999999,-0.02723124821305914
0.0476275,-0.1398340392861532
0.04762875,-0.1614884221849382
0.04763,-0.05721423991906243
0.04763125,0.07537721229102398
0.04763249999999999,0.1110236579855484
0.04763375,0.03906447789183001
0.047635,-0.09585898478432786
0.04763625,-0.1514940916163444
0.0476375,-0.07287202447646214
0.04763875,0.07371149052971306
0.04763999999999999,0.1563312898964611
0.04764125,0.1050270596445534
0.0476425,-0.03122898044075149
0.04764375,-0.1291734200131197
0.047645,-0.1075190371142495
0.04764625,0.02373983768685494
0.0476475,0.151334124612115
0.04764875,0.1676581978743849
0.04765,0.08870298638243072
0.04765125,-0.0885298090341997
0.0476525,-0.1528266690253204
0.04765374999999999,-0.07753604540884837
0.047655,0.07471092358617787
0.04765625,0.1546655681351787
0.0476575,0.09569901778039164
0.04765875,-0.03989073360041404
0.04765999999999999,-0.145497493274846
0.04766125,-0.1268414095471559
0.0476625,0.003418032196894183
0.04766375,0.1283471643045587
0.047665,0.1413397940436174
0.04766625,0.002751743492159708
0.0476675,-0.1508278029119395
0.04766875,-0.2037977549252981
0.04767,-0.1055201710008122
0.04767125,0.07304520182498996
0.0476725,0.1573307229534371
0.04767375,0.1043607709395955
0.047675,-0.03389413525879341
0.04767625,-0.1431654828090256
0.0476775,-0.1275076982516956
0.04767875,0.003084887844845842
0.04768,0.1350100513503374
0.04768124999999999,0.1586633003625919
0.0476825,0.05971942773366003
0.04768375,-0.07553717929483342
0.047685,-0.1298397087176669
0.04768625,-0.05021820852093365
0.0476875,0.1160208232700565
0.04768875,0.163993609999136
0.04769,0.1096910805765725
0.04769125,-0.03089583608846275
0.0476925,-0.1385014618771584
0.04769375,-0.1371688844677955
0.047695,-0.01790320634897828
0.04769625,0.1153545345651315
0.0476975,0.150334691555455
0.04769875,0.05672112856289895
0.0477,-0.08386578810222615
0.04770125,-0.157157545605085
0.04770249999999999,-0.09785785089830615
0.04770375,0.01108035229946018
0.047705,0.1016956161215743
0.04770625,0.0787086558137763
0.0477075,-0.03289470220242738
0.04770874999999999,-0.1318385748311539
0.04771,-0.1431654828091541
0.04771125,-0.0348935683160666
0.0477125,0.1050270596444834
0.04771375,0.1543324237828576
0.047715,0.07670978969979422
0.04771625,-0.06054568344231285
0.0477175,-0.1428323384567756
0.04771875,-0.09785785089819177
0.04772,0.04372849882376689
0.04772125,0.1596627334195173
0.0477225,0.1599958777715055
0.04772375,0.05072453022193549
0.047725,-0.05887996168051728
0.04772625,-0.1414997610477408
0.0477275,-0.06820800354452163
0.04772875,0.06971375830223826
0.04772999999999999,0.1546655681349833
0.04773125,0.1013624717694014
0.0477325,-0.03389413525904625
0.04773375,-0.1441649158660313
0.047735,-0.1358363070586958
0.04773624999999999,-0.01157346365628843
0.0477375,0.1216842772585199
0.04773875,0.1513341246123202
0.04774,0.05605483985832536
0.04774125,-0.1205116668537487
0.0477425,-0.2037977549252649
0.04774375,-0.1458306376270336
0.047745,0.01374550711761285
0.04774625,0.142672371452832
0.0477475,0.1293465973613643
0.04774875,0.009081486185712178
0.04775,-0.1198453781491653
0.04775125,-0.1488289367979842
0.0477525,-0.05221707463501297
0.04775375,0.09136814120072505
0.047755,0.1626610325900492
0.04775625,0.1090247918716843
0.04775749999999999,-0.02323351598556964
0.04775875,-0.1215110999103546
0.04776,-0.1075190371145009
0.04776125,0.02440612639114597
0.0477625,0.1686576309312497
0.04776375,0.1609953108284194
0.04776499999999999,0.05338968504027572
0.04776625,-0.09119496385223827
0.0477675,-0.1558249681960433
0.04776875,-0.1005230057163378
0.04777,0.04006391094875157
0.04777125,0.145670670623429
0.0477725,0.1300128860660211
0.04777375,0.00841519748142508
0.047775,-0.1178465120353787
0.04777625,-0.1528266690253693
0.0477775,-0.06321083826010586
0.04777874999999999,0.04206277706204085
0.04778,0.1066927814058292
0.04778125,0.05572169550606176
0.0477825,-0.05754738427150784
0.04778375,-0.1411666166954388
0.04778499999999999,-0.1328380078883069
0.04778625,-0.01557119588354765
0.0477875,0.1153545345652548
0.04778875,0.1529998463737811
0.04779,0.07071319135881897
0.04779125,-0.0668754261356749
0.0477925,-0.1438317715135966
0.04779375,-0.09619212913680236
0.047795,0.0433953544713639
0.04779625,0.1603290221240914
0.0477975,0.1623278882376785
0.04779875,0.06504973736978842
0.0478,-0.05821367297576313
0.04780125,-0.1458306376273893
0.0478025,-0.08319949939755258
0.04780375,0.05338968504012165
0.047805,0.1529998463737223
0.04780624999999999,0.1206848442020507
0.0478075,-0.006576298371359549
0.04780875,-0.1301728530699337
0.04781,-0.1491620811502912
0.04781125,-0.04855248675953561
0.0478125,0.091368141200872
0.04781375,0.1559981455442153
0.047815,0.09303386296224489
0.04781625,-0.07886862281782434
0.0478175,-0.1918045582430377
0.04781875,-0.1828096607310402
0.04782,-0.03855815619069832
0.04782125,0.1170202563265248
0.0478225,0.1546655681351808
0.04782375,0.07171262441574068
0.047825,-0.06854114789704703
0.04782625,-0.1514940916162588
0.0478275,-0.1138487798080228
0.04782875,0.02174097157260106
0.04783,0.1436718045096955
0.04783125,0.1589964447148518
0.0478325,0.05838685032409656
0.04783374999999999,-0.07153944706716048
0.047835,-0.1298397087175971
0.04783625,-0.05321650769181124
0.0478375,0.08603783156413641
0.04783875,0.1539992794306083
0.04784,0.1296797417134309
0.04784124999999999,0.008748341833876239
0.0478425,-0.111849913694052
0.04784375,-0.1531598133777596
0.047845,-0.07187259141973888
0.04784625,0.0663823147793734
0.0478475,0.152999846373682
0.04784875,0.1166871119745871
0.04785,-0.01024088624663028
0.04785125,-0.1301728530699899
0.0478525,-0.1538261020822977
0.04785375,-0.09419326302270911
0.04785499999999999,0.04106334400511233
0.04785625,0.1120230910424092
0.0478575,0.08337267674585512
0.04785875,-0.03122898044086299
0.04786,-0.1401671836385927
0.04786124999999999,-0.1395008949340221
0.0478625,-0.02589867080443145
0.04786375,0.1063596370535103
0.047865,0.1573307229535094
0.04786625,0.09103499684831888
0.0478675,-0.04022387795272644
0.04786875,-0.1335042965927804
0.04787,-0.1091847588759553
0.04787125,0.01641066193614032
0.0478725,0.145004381918921
0.04787375,0.1953091791140829
0.047875,0.1070259257578171
0.04787625,-0.06321083825995814
0.0478775,-0.1578238343097074
0.04787875,-0.1238431103765409
0.04788,0.01374550711800947
0.04788125,0.1306791747705965
0.04788249999999999,0.1473363923848602
0.04788375,0.05005824151734009
0.047885,-0.08419893245435189
0.04788625,-0.1561581125483377
0.0478875,-0.1081853258188791
0.04788875,0.02573870380046993
0.04789,0.1323448965317578
0.04789125,0.09936360565565298
0.0478925,-0.00890830883759856
0.04789375,-0.1381683175249068
0.047895,-0.1754804849808538
0.04789625,-0.0988572839546472
0.0478975,0.0420627770620239
0.04789875,0.1483358254416694
0.0479,0.1390077835776859
0.04790125,0.02907014732291727
0.0479025,-0.1015224387734396
0.04790374999999999,-0.1514940916162308
0.047905,-0.07720290105649173
0.04790625,0.06704860348372385
0.0479075,0.1693239196358216
0.04790875,0.1559981455441489
0.04790999999999999,0.03873133353973229
0.04791125,-0.06887429224902492
0.0479125,-0.1208448112059125
0.04791375,-0.07120630271522817
0.047915,0.05239025198330021
0.04791625,0.1473363923848685
0.04791749999999999,0.1310123191228901
0.04791875,0.006083187015477401
0.04792,-0.1175133676830357
