Waveform_Captures/gravitest.csv

#Digilent WaveForms Oscilloscope Acquisition
#Device Name: Discovery2
#Serial Number: SN:210321AE0916
#Date Time: 2020-05-11 12:44:09.356
#Sample rate: 800000Hz
#Samples: 8192
#Trigger: Source: Channel 2 Type: Edge Condition: Rising Level: 2 V Hyst.: Auto HoldOff: 0 s
#Channel 1: Range: 200 mV/div Offset: 0 V Attenuation: 1 X
#Power Supplies: OFF
#Positive Supply: Rdy
#Voltage: 5 V
#Negative Supply: OFF
#Voltage: -5 V

Time (s),Channel 1 (V)
0.005482390883977899,0.5117963137866532
0.005483640883977899,0.4691538366939442
0.0054848908839779,-0.05954625038532932
0.005486140883977899,-0.3647064770798896
0.0054873908839779,0.002751743492439067
0.005488640883977899,0.5181260564801022
0.005489890883977899,0.47581672373968
0.005491140883977899,-0.05021820852092118
0.005492390883977899,-0.3633738996707425
0.0054936408839779,-0.00257856614391141
0.005494890883977899,0.5211243556506834
0.0054961408839779,0.4968048179335115
0.005497390883977899,-0.02256722728135693
0.0054986408839779,-0.353046424749852
0.005499890883977899,0.007082620072167329
0.005501140883977899,0.5144614686049476
0.005502390883977899,0.4971379622860423
0.005503640883977899,-0.01757006199705509
0.0055048908839779,-0.3673716318980377
0.005506140883977899,-0.04588733194143218
0.0055073908839779,0.4914745082971699
0.005508640883977899,0.5154609016618079
0.005509890883977899,0.0110803522996088
0.005511140883977899,-0.3673716318980119
0.005512390883977899,-0.07087315836294139
0.005513640883977899,0.4711527028074185
0.005514890883977899,0.5284535314009927
0.0055161408839779,0.02540555944775213
0.005517390883977899,-0.3893591591491121
0.0055186408839779,-0.1221773886151069
0.005519890883977899,0.4305090918286766
0.005521140883977899,0.5417793054924643
0.005522390883977899,0.06538288172257212
0.005523640883977899,-0.3600424561478746
0.005524890883977899,-0.1221773886152151
0.005526140883977899,0.4225136273737937
0.0055273908839779,0.5551050795837278
0.005528640883977899,0.09769788389417404
0.0055298908839779,-0.3490486925224106
0.005531140883977899,-0.1444980602183218
0.005532390883977899,0.399859811418292
0.005533640883977899,0.5804240503576499
0.005534890883977899,0.1473363923849056
0.0055361408839779,-0.3230634330439618
0.005537390883977899,-0.1491620811503369
0.0055386408839779,0.3675448092465716
0.005539890883977899,0.583422349528313
0.0055411408839779,0.1733216518632753
0.005542390883977899,-0.3227302886917542
0.005543640883977899,-0.2147915185508344
0.005544890883977899,0.3175731564032129
0.005546140883977899,0.5950824018583506
0.0055473908839779,0.2232933047060572
0.005548640883977899,-0.2967450292133846
0.0055498908839779,-0.2447745102564094
0.005551140883977899,0.2742643906061724
0.005552390883977899,0.6014121445517996
0.005553640883977899,0.2469465537188169
0.005554890883977899,-0.2937467300428035
0.005556140883977899,-0.3024084832022561
0.005557390883977899,0.2059697983873806
0.0055586408839779,0.5967481236196553
0.005559890883977899,0.3125759911191532
0.0055611408839779,-0.2294498700514531
0.005562390883977899,-0.3074056484865619
0.005563640883977899,0.1699902083404073
0.005564890883977899,0.5897520922215711
0.005566140883977899,0.3598824891438773
0.005567390883977899,-0.183475949435629
0.005568640883977899,-0.3257285878623353
0.0055698908839779,0.1220174216113209
0.005571140883977899,0.5864206486988941
0.0055723908839779,0.4201816169077862
0.005573640883977899,-0.1165139346262315
0.005574890883977899,-0.3280605983283428
0.005576140883977899,0.06071886079016359
0.005577390883977899,0.547109615129053
0.0055786408839779,0.4514971860225058
0.005579890883977899,-0.07320516882894891
0.0055811408839779,-0.3657059101365865
0.005582390883977899,-0.006243154019304246
0.0055836408839779,0.5154609016618079
0.005584890883977899,0.5011356945134761
0.005586140883977899,-0.007575731428451403
0.005587390883977899,-0.3717025084777466
0.005588640883977899,-0.07020686965836781
0.0055898908839779,0.4648229601142394
0.005591140883977899,0.5164603347186684
0.0055923908839779,0.03706561177778613
0.005593640883977899,-0.3856945712739573
0.005594890883977899,-0.1478295037411897
0.005596140883977899,0.4038575436457335
0.005597390883977899,0.570762864141415
0.005598640883977899,0.1343437626459193
0.005599890883977899,-0.3417195167721012
0.0056011408839779,-0.194469713061098
0.005602390883977899,0.338228106245236
0.0056036408839779,0.5937498244492034
0.005604890883977899,0.2129658297854032
0.005606140883977899,-0.2957455961565242
0.005607390883977899,-0.2384447675632225
0.005608640883977899,0.273264957549312
0.005609890883977899,0.6134053412339694
0.005611140883977899,0.2992502170276816
0.0056123908839779,-0.2274510039377634
0.005613640883977899,-0.2957455961565242
0.0056148908839779,0.1779856727952903
0.005616140883977899,0.5917509583354827
0.005617390883977899,0.3642133657236055
0.005618640883977899,-0.1798113615604742
0.005619890883977899,-0.3387212176015201
0.0056211408839779,0.09669845083752909
0.005622390883977899,0.5704297197891282
0.0056236408839779,0.4338405353513012
0.005624890883977899,-0.1011892944210392
0.0056261408839779,-0.3647064770798896
0.005627390883977899,0.007748908776740908
0.005628640883977899,0.5038008493317703
0.005629890883977899,0.4714858471599664
0.005631140883977899,-0.03689243442968887
0.0056323908839779,-0.3810305503418039
0.005633640883977899,-0.0765366123518168
0.0056348908839779,0.4581600730685213
0.005636140883977899,0.5487753368904869
0.005637390883977899,0.08204009933669494
0.005638640883977899,-0.3587098787387274
0.005639890883977899,-0.1608221334803745
0.005641140883977899,0.3752071293488258
0.005642390883977899,0.5874200817557544
0.0056436408839779,0.1889794364205283
0.005644890883977899,-0.3080719371911355
0.0056461408839779,-0.2251189934717249
0.005647390883977899,0.2909216082205119
0.005648640883977899,0.6273974040301692
0.005649890883977899,0.3105771250055765
0.005651140883977899,-0.2467733763703662
0.005652390883977899,-0.3077387928388209
0.005653640883977899,0.1689907752835469
0.0056548908839779,0.5957486905628252
0.005656140883977899,0.3778722841673639
0.0056573908839779,-0.1638204326509556
0.005658640883977899,-0.3490486925224106
0.005659890883977899,0.06904746959751015
0.005661140883977899,0.5564376569928613
0.005662390883977899,0.461491516591348
0.005663640883977899,-0.06121197214638674
0.005664890883977899,-0.376699673762214
0.0056661408839779,-0.06354398261239311
0.005667390883977899,0.4618246609436348
0.0056686408839779,0.5077985815592118
0.005669890883977899,0.03839818918712553
0.005671140883977899,-0.3643733327276029
0.005672390883977899,-0.1385014618772623
0.005673640883977899,0.3945295017817034
0.0056748908839779,0.5797577616529704
0.005676140883977899,0.1666587648175394
0.0056773908839779,-0.3253954435100056
0.005678640883977899,-0.2311155918128871
0.005679890883977899,0.2865907316407836
0.005681140883977899,0.6110733307681165
0.005682390883977899,0.2935867630388062
0.005683640883977899,-0.2374453345060946
0.005684890883977899,-0.2974113179179582
0.0056861408839779,0.1766530953863387
0.005687390883977899,0.6067424541883882
0.0056886408839779,0.3985272340088976
0.005689890883977899,-0.1451643489228954
0.005691140883977899,-0.3633738996707425
0.005692390883977899,0.03573303436864972
0.005693640883977899,0.537448428912736
0.005694890883977899,0.4941396631154731
0.005696140883977899,-0.01657062894019472
0.0056973908839779,-0.3740345189437894
0.005698640883977899,-0.08753037597728085
0.0056998908839779,0.4481657424998765
0.005701140883977899,0.5664319875616868
0.005702390883977899,0.1176865450313814
0.005703640883977899,-0.3657059101365301
0.005704890883977899,-0.2257852821762985
0.005706140883977899,0.301915371845736
0.005707390883977899,0.5947492575060638
0.0057086408839779,0.2489454198321407
0.005709890883977899,-0.2694271923258679
0.0057111408839779,-0.2907484308722224
0.005712390883977899,0.192644024295909
0.005713640883977899,0.5967481236197846
0.005714890883977899,0.3732082632354505
0.005716140883977899,-0.1614884221849481
0.0057173908839779,-0.3493818368745119
0.005718640883977899,0.05838685032433289
0.0057198908839779,0.5527730691179034
0.005721140883977899,0.497804250990608
0.0057223908839779,-0.01223975236046645
0.005723640883977899,-0.3477161151132634
0.005724890883977899,-0.06654228178321313
0.005726140883977899,0.4501646086133622
0.005727390883977899,0.562767399686532
0.0057286408839779,0.1206848442017512
0.005729890883977899,-0.3440515272381087
0.0057311408839779,-0.2101274976185819
0.005732390883977899,0.3119097024145796
0.005733640883977899,0.6094076090066826
0.005734890883977899,0.2782621228337644
0.005736140883977899,-0.2544356964729623
0.005737390883977899,-0.3104039476571175
0.005738640883977899,0.1556650011920754
0.0057398908839779,0.5827560608236494
0.005741140883977899,0.3848683155653865
0.0057423908839779,-0.1468300706843294
0.005743640883977899,-0.3873602930353913
0.005744890883977899,-0.008575164485311771
0.005746140883977899,0.5127957468432764
0.005747390883977899,0.5187923451846759
0.005748640883977899,0.03340102390304439
0.005749890883977899,-0.3683710649550443
0.0057511408839779,-0.145164348922653
0.005752390883977899,0.3878666147359676
0.0057536408839779,0.5917509583354827
0.005754890883977899,0.2009726331030787
0.005756140883977899,-0.3000764727362525
0.005757390883977899,-0.255435129529843
0.005758640883977899,0.2422825327866406
0.0057598908839779,0.6154042073477364
0.005761140883977899,0.3772059954627903
0.0057623908839779,-0.1604889891281738
0.005763640883977899,-0.3497149812269841
0.0057648908839779,0.05905313902890647
0.005766140883977899,0.5487753368904869
0.005767390883977899,0.4881430647742911
0.005768640883977899,-0.02056836116740479
0.005769890883977899,-0.3750339520007801
0.0057711408839779,-0.09852413960250342
0.005772390883977899,0.4325079579423973
0.0057736408839779,0.5807571947098258
0.005774890883977899,0.1566644342489358
0.005776140883977899,-0.3267280209191956
0.005777390883977899,-0.2501048198932689
0.005778640883977899,0.2436151101957878
0.005779890883977899,0.5857543599941648
0.005781140883977899,0.3029148049028363
0.0057823908839779,-0.2164572403123244
0.005783640883977899,-0.3397206506583804
0.0057848908839779,0.08737040897328358
0.005786140883977899,0.5617679666296717
0.005787390883977899,0.4688206923416574
0.005788640883977899,-0.04255588841833174
0.005789890883977899,-0.3776991068190744
0.005791140883977899,-0.08819666468198611
0.005792390883977899,0.4458337320338689
0.0057936408839779,0.5820897721189731
0.005794890883977899,0.1583301560103697
0.0057961408839779,-0.321397711282607
0.005797390883977899,-0.228117292642306
0.005798640883977899,0.2895890308113647
0.005799890883977899,0.6217339500411427
0.005801140883977899,0.3345635183700812
0.0058023908839779,-0.2067960540960163
0.005803640883977899,-0.3493818368746973
0.0058048908839779,0.07471092358660389
0.005806140883977899,0.5547719352316491
0.0058073908839779,0.4864773430128572
0.005808640883977899,-0.01856949505391545
0.005809890883977899,-0.3750339520007801
0.005811140883977899,-0.1088516145237565
0.005812390883977899,0.4195153282032126
0.0058136408839779,0.5870869374032806
0.005814890883977899,0.1756536623292828
0.0058161408839779,-0.3383880732492119
0.005817390883977899,-0.291414719576796
0.005818640883977899,0.2049703653305202
0.005819890883977899,0.6000795671424728
0.005821140883977899,0.368211097951047
0.005822390883977899,-0.1648198657075737
0.005823640883977899,-0.3620413222615953
0.0058248908839779,0.02607184815274202
0.005826140883977899,0.5267878096395588
0.0058273908839779,0.5151277573095212
0.005828640883977899,0.03240159084596332
0.005829890883977899,-0.3643733327276029
0.005831140883977899,-0.1518272359687278
0.005832390883977899,0.3768728511105035
0.005833640883977899,0.6157373517000229
0.005834890883977899,0.254275729468965
0.0058361408839779,-0.2457739433135305
0.005837390883977899,-0.3000764727362525
0.0058386408839779,0.156331289896649
0.005839890883977899,0.5854212156420338
0.005841140883977899,0.4308422361809634
0.005842390883977899,-0.08819666468161835
0.005843640883977899,-0.3790316842282216
0.0058448908839779,-0.05821367297580402
0.005846140883977899,0.4681544036370838
0.0058473908839779,0.5687639980274966
0.005848640883977899,0.1340106182934341
0.0058498908839779,-0.3377217845446597
0.005851140883977899,-0.2394442006200568
0.005852390883977899,0.2629374826284215
0.005853640883977899,0.5877532261078935
0.005854890883977899,0.3155742902897343
0.0058561408839779,-0.2134589411417536
0.005857390883977899,-0.359376167443301
0.0058586408839779,0.04739308669909231
0.005859890883977899,0.5387810063218832
0.005861140883977899,0.5111300250820797
0.005862390883977899,0.02407298203901509
0.005863640883977899,-0.3740345189439197
0.005864890883977899,-0.1624878552419047
0.005866140883977899,0.3642133657236055
0.0058673908839779,0.6110733307679574
0.005868640883977899,0.2612717608669876
0.0058698908839779,-0.2557682738821095
0.005871140883977899,-0.3097376589525694
0.005872390883977899,0.143671804509751
0.005873640883977899,0.6084081759496109
0.005874890883977899,0.4674881149325102
0.005876140883977899,-0.05388279639607801
0.005877390883977899,-0.3890260147968252
0.0058786408839779,-0.09885728395479082
0.005879890883977899,0.4308422361809634
0.0058811408839779,0.5890858035171884
0.005882390883977899,0.1849817041933128
0.005883640883977899,-0.3110702363617165
0.005884890883977899,-0.2804209559513459
0.005886140883977899,0.2039709322736599
0.0058873908839779,0.6030778663131441
0.005888640883977899,0.406189554111741
0.0058898908839779,-0.1288402756609692
0.005891140883977899,-0.4070158098203119
0.0058923908839779,-0.06454341566949238
0.005893640883977899,0.4574937843639065
0.005894890883977899,0.564433121447966
0.005896140883977899,0.1280140199524703
0.005897390883977899,-0.3417195167721012
0.0058986408839779,-0.2444413659041314
0.005899890883977899,0.2552751625258254
0.0059011408839779,0.6087413203019961
0.005902390883977899,0.3605487778484509
0.005903640883977899,-0.1664855874692499
0.005904890883977899,-0.3633738996706529
0.005906140883977899,0.01474494017476348
0.005907390883977899,0.5207912112981664
0.005908640883977899,0.5557713682885095
0.0059098908839779,0.09403329601882726
0.005911140883977899,-0.3283937426806296
0.0059123908839779,-0.2101274976188193
0.005913640883977899,0.2905884638682251
0.005914890883977899,0.6107401864158297
0.005916140883977899,0.3342303740179202
0.005917390883977899,-0.1931371356521931
0.005918640883977899,-0.3617081779092319
0.005919890883977899,0.02940329167538222
0.0059211408839779,0.5294529644578553
0.005922390883977899,0.534450129742155
0.0059236408839779,0.06238458255177436
0.005924890883977899,-0.364040188375316
0.005926140883977899,-0.2057966210390911
0.005927390883977899,0.3012490831411718
0.005928640883977899,0.5910846696309091
0.0059298908839779,0.2985839283228695
0.005931140883977899,-0.2261184265285852
0.0059323908839779,-0.3587098787385448
0.005933640883977899,0.04272906576685379
0.0059348908839779,0.5364489958558757
0.005936140883977899,0.5254552322304117
0.005937390883977899,0.05172396327859711
0.005938640883977899,-0.3693704980117132
0.005939890883977899,-0.2034646105730836
0.0059411408839779,0.3139085685284393
0.005942390883977899,0.6194019395752862
0.0059436408839779,0.3298994974378284
0.005944890883977899,-0.1931371356521931
0.005946140883977899,-0.3513807029884181
0.005947390883977899,0.04839251975572921
0.005948640883977899,0.5574370900499435
0.005949890883977899,0.5421124498447581
0.005951140883977899,0.06938061394979694
0.0059523908839779,-0.3710362197732697
0.005953640883977899,-0.2194555394828495
0.0059548908839779,0.2972513509139609
0.005956140883977899,0.6180693621661391
0.005957390883977899,0.344557848938685
0.005958640883977899,-0.1828096607310628
0.005959890883977899,-0.3700367867164783
0.005961140883977899,0.01241292970858204
0.005962390883977899,0.5157940460140947
0.0059636408839779,0.5544387908791517
0.005964890883977899,0.09136814120072505
0.0059661408839779,-0.3800311172850819
0.005967390883977899,-0.2667620375075735
0.005968640883977899,0.2376185118546256
0.005969890883977899,0.6107401864156601
0.005971140883977899,0.3768728511105035
0.0059723908839779,-0.1508278029118746
0.005973640883977899,-0.3790316842282216
0.0059748908839779,-0.03189526914515266
0.005976140883977899,0.4834790438422761
0.0059773908839779,0.570762864141415
0.005978640883977899,0.1446712375666113
0.005979890883977899,-0.3257285878623353
0.005981140883977899,-0.2640968826893073
0.005982390883977899,0.2202950055357125
0.0059836408839779,0.6197350839274874
0.005984890883977899,0.431508524885537
0.0059861408839779,-0.07187259141994279
0.005987390883977899,-0.3820299833988027
0.005988640883977899,-0.09052867514786196
0.005989890883977899,0.4305090918286766
0.005991140883977899,0.5980807010289317
0.005992390883977899,0.2106338193195718
0.005993640883977899,-0.2900821421676488
0.0059948908839779,-0.3137353911798048
0.005996140883977899,0.1393409279300227
0.0059973908839779,0.5850880712897469
0.005998640883977899,0.4784818785579743
0.005999890883977899,-0.02456609339507766
0.006001140883977899,-0.3850282825692198
0.006002390883977899,-0.1738147632195593
0.006003640883977899,0.3418926941201562
0.006004890883977899,0.5910846696309091
0.0060061408839779,0.2682677922647804
0.006007390883977899,-0.2371121901540493
0.0060086408839779,-0.354712146511286
0.006009890883977899,0.05372282939231784
0.006011140883977899,0.5394472950264568
0.006012390883977899,0.5331175523330107
0.006013640883977899,0.06604917042692905
0.006014890883977899,-0.365372765784267
0.006016140883977899,-0.2287835813468795
0.0060173908839779,0.277595834129199
0.006018640883977899,0.6267311153255956
0.0060198908839779,0.3855346042699601
0.006021140883977899,-0.1358363070588653
0.006022390883977899,-0.3723687971824858
0.006023640883977899,-0.01590434023578324
0.006024890883977899,0.4808138890239818
0.0060261408839779,0.5867537930509938
0.006027390883977899,0.1753205179769959
0.0060286408839779,-0.3150679685891545
0.006029890883977899,-0.3074056484865619
0.006031140883977899,0.1573307229535094
0.006032390883977899,0.5924172470400563
0.006033640883977899,0.4728184245690988
0.006034890883977899,-0.0282306812700045
0.006036140883977899,-0.3890260147968252
0.0060373908839779,-0.1611552778324242
0.006038640883977899,0.360215633496164
0.0060398908839779,0.6000795671425073
0.006041140883977899,0.2809272776519082
0.006042390883977899,-0.2427756441429247
0.006043640883977899,-0.382363127751026
0.006044890883977899,0.02407298203879359
0.006046140883977899,0.5211243556504573
0.006047390883977899,0.5567708013453698
0.0060486408839779,0.1103573692808625
0.006049890883977899,-0.3503812699315577
0.0060511408839779,-0.2690940479735811
0.006052390883977899,0.2196287168311389
0.006053640883977899,0.6117396194726901
0.006054890883977899,0.4345068240561987
0.006056140883977899,-0.08020120022697148
0.006057390883977899,-0.3810305503418056
0.006058640883977899,-0.10318816053476
0.0060598908839779,0.4205147612601752
0.006061140883977899,0.6453871990536558
0.0060623908839779,0.2686009366172969
0.006063640883977899,-0.2571008512912566
0.006064890883977899,-0.3633738996707425
0.006066140883977899,0.05672112856270795
0.006067390883977899,0.5464433264244793
0.0060686408839779,0.5427787385491155
0.006069890883977899,0.08270638804126852
0.0060711408839779,-0.3597093117955386
0.006072390883977899,-0.2514373973023812
0.0060736408839779,0.2419493884343538
0.006074890883977899,0.6174030734615655
0.006076140883977899,0.417183317737205
0.006077390883977899,-0.1118499136939758
0.006078640883977899,-0.4206747282640703
0.0060798908839779,-0.1348368740017651
0.006081140883977899,0.3925306356679826
0.0060823908839779,0.6117396194725306
0.006083640883977899,0.2612717608669876
0.006084890883977899,-0.251770541654668
0.006086140883977899,-0.3577104456818189
0.006087390883977899,0.05105767457402353
0.006088640883977899,0.5381147176170882
0.006089890883977899,0.5484421925382001
0.0060911408839779,0.09736473954168501
0.006092390883977899,-0.3473829707609766
