Waveform_Captures/gravitest_6.csv

#Digilent WaveForms Oscilloscope Acquisition
#Device Name: Discovery2
#Serial Number: SN:210321AE0916
#Date Time: 2020-05-14 20:32:17.685
#Sample rate: 3.125e+06Hz
#Samples: 16384
#Trigger: Source: External 1 Condition: Rising
#Channel 1: Range: 200 mV/div Offset: 0 V Attenuation: 1 X
#Wavegen Channel 1: Running
#Mode: Simple
#Type: Pulse
#Frequency: 1 Hz
#Period: 1 s
#Amplitude: 5 V
#Offset: -5 mV
#Symmetry: 0.3 %
#Phase: 180 °
#Power Supplies: ON
#Positive Supply: ON
#Voltage: 5 V
#Negative Supply: OFF
#Voltage: -5 V

Time (s),Channel 1 (V)
0.02017824,-0.08619779856832822
0.02017856,-0.1574906899572473
0.02017888,-0.2174566733692348
0.0201792,-0.2757569350190517
0.02017952,-0.3343903410218406
0.02017984,-0.3880265817396722
0.02018016,-0.4316684918894946
0.02018048,-0.4449942659810574
0.0201808,-0.4563211739587361
0.02018112,-0.4479925651515348
0.02018144,-0.4336673580032941
0.02018176,-0.4060163767633849
0.02018208,-0.369370498012038
0.0201824,-0.3257285878622819
0.02018272,-0.267095181860127
0.02018304,-0.2087949202096722
0.02018336,-0.1401671836389681
0.02018368,-0.07120630271529088
0.020184,0.009081486186176515
0.02018432,0.08836984202999972
0.02018464,0.1576638673059743
0.02018496,0.2229601603538287
0.02018528,0.2765964010722757
0.0201856,0.3292332087333011
0.02018592,0.3678779535987887
0.02018624,0.399193522713822
0.02018656,0.4181827507940654
0.02018688,0.4268445039534668
0.0201872,0.4245124934875165
0.02018752,0.4088547089299553
0.02018784,0.3868671816791472
0.02018816,0.3522201690411693
0.02018848,0.3112434137101551
0.0201888,0.2589397504008765
0.02018912,0.2019720661601982
0.02018944,0.1403403609868213
0.02018976,0.07237891312001445
0.02019008,0.005750042663020172
0.0201904,-0.06354398261293803
0.02019072,-0.1308391417744411
0.02019104,-0.1938034243569812
0.02019136,-0.2527699747113675
0.02019168,-0.3050736380206734
0.020192,-0.348715548169965
0.02019232,-0.3810305503419835
0.02019264,-0.4036843662973409
0.02019296,-0.4156775629797684
0.02019328,-0.4136786968660005
0.0201936,-0.405016943706599
0.02019392,-0.3813636946940897
0.02019424,-0.3507144142839002
0.02019456,-0.3070725041340872
0.02019488,-0.2554351295299636
0.0201952,-0.1994668783455215
0.02019552,-0.1331711522408122
0.02019584,-0.06887429224915551
0.02019616,0.002751743492113351
0.02019648,0.07137948006351767
0.0201968,0.1413397940440962
0.02019712,0.2059697983873218
0.02019744,0.263936915685494
0.02019776,0.3222371773353641
0.02019808,0.363880221371426
0.0201984,0.4031912549410526
0.02019872,0.4258450708966943
0.02019904,0.4438348659200828
0.02019936,0.4461668763861478
0.02019968,0.4375051232267465
0.0202,0.4238462047829408
0.02020032,0.395862079190796
0.02020064,0.383868882508537
0.02020096,0.3502213029273034
0.02020128,0.2795947002428895
0.0202016,0.198973766989149
0.02020192,0.1223505659636752
0.02020224,0.05239025198303131
0.02020256,-0.02423294904244243
0.02020288,-0.09086181950021269
0.0202032,-0.1611552778322777
0.02020352,-0.221787549948857
0.02020384,-0.2804209559515546
0.02020416,-0.3293931757374008
0.02020448,-0.3667053431937364
0.0202048,-0.4013523558313419
0.02020512,-0.4163438516843729
0.02020544,-0.4276707596620516
0.02020576,-0.4173432847411769
0.02020608,-0.4033512219452208
0.0202064,-0.3747008076484933
0.02020672,-0.3393875063062863
0.02020704,-0.2997433283840018
0.02020736,-0.2471065207224015
0.02020768,-0.1918045582431465
0.020208,-0.1261751208423711
0.02020832,-0.06121197214680174
0.02020864,0.009747774890585266
0.02020896,0.07770922275671943
0.02020928,0.1433386601575233
0.0202096,0.2083018088537402
0.02020992,0.2636037713329951
0.02021024,0.3179063007554455
0.02021056,0.3588830560869796
0.02021088,0.3955289348386462
0.0202112,0.4181827507940242
0.02021152,0.4315085248855461
0.02021184,0.4348399684083958
0.02021216,0.4215141943169
0.02021248,0.4031912549412265
0.0202128,0.370876252769305
0.02021312,0.3308989304946575
0.02021344,0.2815935663564818
0.02021376,0.2252921708197462
0.02021408,0.1663256204653063
0.0202144,0.1000298943599428
0.02021472,0.03440045695986312
0.02021504,-0.03356099090700368
0.02021536,-0.100523005716222
0.02021568,-0.1661524431170728
0.020216,-0.2264515708805978
0.02021632,-0.277755801133084
0.02021664,-0.3287268870331727
0.02021696,-0.3757002407053109
0.02021728,-0.4186758621504723
0.0202176,-0.4456605546855304
0.02021792,-0.4509908643221487
0.02021824,-0.445660554685594
0.02021856,-0.4270044709574511
0.02021888,-0.4020186445361009
0.0202192,-0.3663721988412817
0.02021952,-0.3203982782259557
0.02021984,-0.2690940479735811
0.02022016,-0.2084617758570455
0.02022048,-0.1461637819798124
0.0202208,-0.07587032364691751
0.02022112,-0.004244287905713795
0.02022144,0.07537721229116184
0.02022176,0.1496684028507105
0.02022208,0.2132989741378002
0.0202224,0.273931246253665
0.02022272,0.3222371773355116
0.02022304,0.3678779535985526
0.02022336,0.3965283678954241
0.02022368,0.4215141943169742
0.020224,0.4305090918286685
0.02022432,0.4301759474763571
0.02022464,0.4211810499646629
0.02022496,0.3948626461339138
0.02022528,0.3668785205419762
0.0202256,0.3215708886308159
0.02022592,0.277262689776955
0.02022624,0.2189624281265078
0.02022656,0.1556650011924208
0.02022688,0.09436644037130615
0.0202272,0.02274040462935404
0.02022752,-0.04155645536164543
0.02022784,-0.1135156354558698
0.02022816,-0.1738147632193948
0.02022848,-0.2361127570973362
0.0202288,-0.2900821421674525
0.02022912,-0.3320583305558552
0.02022944,-0.3710362197731614
0.02022976,-0.3926906026719984
0.02023008,-0.4130124081613632
0.0202304,-0.4113466864000416
0.02023072,-0.4076820985248021
0.02023104,-0.3893591591491454
0.02023136,-0.3610418892046089
0.02023168,-0.3263948765670034
0.020232,-0.2770895124283304
0.02023232,-0.2281172926424841
0.02023264,-0.1658192987646206
0.02023296,-0.1045207379441859
0.02023328,-0.03555985702054171
0.0202336,0.03340102390244737
0.02023392,0.1016956161215534
0.02023424,0.1683244865791903
0.02023456,0.2279573256382002
0.02023488,0.2879233090500589
0.0202352,0.3348966627222399
0.02023552,0.3798711502811416
0.02023584,0.4111867193959289
0.02023616,0.4341736797038434
0.02023648,0.447499453795292
0.0202368,0.4455005876815821
0.02023712,0.4395039893404581
0.02023744,0.4158507403280794
0.02023776,0.3958620791907936
0.02023808,0.3802042946333999
0.0202384,0.3438915602339087
0.02023872,0.2696003696743601
0.02023904,0.1873137146591865
0.02023936,0.1136888128042747
0.02023968,0.04106334400535682
0.02024,-0.02823068127061411
0.02024032,-0.09819099525045812
0.02024064,-0.1671518761741022
0.02024096,-0.2284504369944813
0.02024128,-0.2854181212358095
0.0202416,-0.3337240523170864
0.02024192,-0.3730350858871375
0.02024224,-0.401685500183619
0.02024256,-0.419009006502652
0.02024288,-0.4276707596620534
0.0202432,-0.4180095734457759
0.02024352,-0.402351788888155
0.02024384,-0.3763665294099509
0.02024416,-0.3420526611241986
0.02024448,-0.300409617088615
0.0202448,-0.2491053868361846
0.02024512,-0.1971348678797764
0.02024544,-0.1325048635358775
0.02024576,-0.0665422817834531
0.02024608,0.001419166083354023
0.0202464,0.06971375830177316
0.02024672,0.1353431957025812
0.02024704,0.1986406226373621
0.02024736,0.251943719002909
0.02024768,0.3069125371304341
0.020248,0.3498881585751954
0.02024832,0.3891991921451847
0.02024864,0.4148513072711275
0.02024896,0.4311753805332617
0.02024928,0.4375051232266762
0.0202496,0.4278439370103714
0.02024992,0.4158507403281233
0.02025024,0.3845351712130997
0.02025056,0.352220169041066
0.02025088,0.3049136710166001
0.0202512,0.2519437190027478
0.02025152,0.1943097460574478
0.02025184,0.127680875599816
0.02025216,0.06571602607486768
0.02025248,-0.008575164485428121
0.0202528,-0.07253888012408445
0.02025312,-0.1408334723432238
0.02025344,-0.2031314662204568
0.02025376,-0.2590997174049774
0.02025408,-0.3140685355325173
0.0202544,-0.3623744666137942
0.02025472,-0.4173432847412872
0.02025504,-0.440663389401214
0.02025536,-0.4536560191404551
0.02025568,-0.4509908643221778
0.020256,-0.4409965337535299
0.02025632,-0.4220073056733038
0.02025664,-0.3863608599785309
0.02025696,-0.351047558636324
0.02025728,-0.2977444622702934
0.0202576,-0.245773943313221
0.02025792,-0.1831428050837033
0.02025824,-0.1198453781488388
0.02025856,-0.04821934240763513
0.02025888,0.03140215778923082
0.0202592,0.1016956161213598
0.02025952,0.1703233526927493
0.02025984,0.230955624809227
0.02026016,0.2839255768224893
0.02026048,0.3298994974378154
0.0202608,0.3712093971215905
0.02026112,0.4015255331797987
0.02026144,0.421514194316897
0.02026176,0.4321748135900906
0.02026208,0.4248456378398212
0.0202624,0.4155175959757305
0.02026272,0.3931969243726374
0.02026304,0.3625476439621346
0.02026336,0.3219040329829088
0.02026368,0.2715992357878781
0.020264,0.2179629950694217
0.02026432,0.1556650011921321
0.02026464,0.09103499684819828
0.02026496,0.02507241509577395
0.02026528,-0.04188959971417341
0.0202656,-0.1088516145233918
0.02026592,-0.1731484745150918
0.02026624,-0.2314487361649087
0.02026656,-0.2850849768833891
0.02026688,-0.3313920418514034
0.0202672,-0.3667053431935782
0.02026752,-0.393023747024338
0.02026784,-0.4086815315817173
0.02026816,-0.4146781299228838
0.02026848,-0.4080152428771904
0.0202688,-0.392357458319625
0.02026912,-0.3673716318982748
0.02026944,-0.3307257531466005
0.02026976,-0.2904152865201189
0.02027008,-0.2364459014494757
0.0202704,-0.1804776502649461
0.02027072,-0.1165139346262897
0.02027104,-0.05221707463457667
0.02027136,0.01474494017464167
0.02027168,0.08437210980287244
0.020272,0.1466701036801621
0.02027232,0.2122995410809302
0.02027264,0.2676015035602354
0.02027296,0.322570321687795
0.02027328,0.3645465100757014
0.0202736,0.4008592444751524
0.02027392,0.4298428031241531
0.02027424,0.4408365667495571
0.02027456,0.4501646086135633
0.02027488,0.440836566749584
0.0202752,0.4405034223972739
0.02027552,0.4381714119312792
0.02027584,0.4098541419867787
0.02027616,0.3455572819958377
0.02027648,0.2732649575492569
0.0202768,0.2126326854334472
0.02027712,0.1433386601574642
0.02027744,0.07870865581350134
0.02027776,0.007082620072232468
0.02027808,-0.06254454955601041
0.0202784,-0.1281739869560901
0.02027872,-0.1948028574137788
0.02027904,-0.2504379642453185
0.02027936,-0.3077387928389207
0.02027968,-0.3473829707607963
0.02028,-0.3846951382171164
0.02028032,-0.4060163767633352
0.02028064,-0.4176764290934785
0.02028096,-0.4203415839117334
0.02028128,-0.4093478202863394
0.0202816,-0.3963551905470304
0.02028192,-0.3677047762505489
0.02028224,-0.3357229184308117
0.02028256,-0.2890827091109581
0.02028288,-0.2394442006200047
0.0202832,-0.1821433720269896
0.02028352,-0.1185128007399523
0.02028384,-0.05688109556723255
0.02028416,0.01207978535640646
0.02028448,0.07537721229126365
0.0202848,0.142339227100482
0.02028512,0.2006394887509474
0.02028544,0.2576071729916775
0.02028576,0.3129091354715084
0.02028608,0.3505544472797102
0.0202864,0.3878666147359912
0.02028672,0.4138518742144426
0.02028704,0.4331742466469709
0.02028736,0.437171978874387
0.02028768,0.4331742466469746
0.020288,0.4168501733848177
0.02028832,0.389199192145165
0.02028864,0.3542190351548737
0.02028896,0.3072456814826927
0.02028928,0.2566077399348665
0.0202896,0.1983074782850496
0.02028992,0.1356763400548095
0.02029024,0.07137948006314498
0.02029056,0.003084887844725857
0.02029088,-0.06254454955607162
0.0202912,-0.1285071313084959
0.02029152,-0.193137135652444
0.02029184,-0.2620980165753704
0.02029216,-0.3293931757376136
0.02029248,-0.3747008076483285
0.0202928,-0.4086815315817864
0.02029312,-0.4310022031848592
0.02029344,-0.4443279772764323
0.02029376,-0.4506577199698358
0.02029408,-0.4423291111627191
0.0202944,-0.4286701927188183
0.02029472,-0.3990203453654829
0.02029504,-0.3663721988411611
0.02029536,-0.3217308556350156
0.02029568,-0.2694271923257546
0.020296,-0.2071291984484649
0.02029632,-0.1321717191836479
0.02029664,-0.06321083826065882
0.02029696,0.01041406359503522
0.02029728,0.06638231477958853
0.0202976,0.1346769069979455
0.02029792,0.1996400556941424
0.02029824,0.2576071729917275
0.02029856,0.3115765580624137
0.02029888,0.3558847569163149
0.0202992,0.3858677486222856
0.02029952,0.4071889871685238
0.02029984,0.4285102257149589
0.02030016,0.4318416692378056
0.02030048,0.4278439370103823
0.0203008,0.4125192968050612
0.02030112,0.3842020268608387
0.02030144,0.3525533133933909
0.02030176,0.3039142379597851
0.02030208,0.2576071729916721
0.0203024,0.1986406226372857
0.02030272,0.138341494873043
0.02030304,0.07271205747296328
0.02030336,0.005083753958389933
0.02030368,-0.05721423991884307
0.020304,-0.1251756877856881
0.02030432,-0.1804776502655648
0.02030464,-0.2397773449722357
0.02030496,-0.287416987349512
0.02030528,-0.3307257531465189
0.0203056,-0.366372198841379
0.02030592,-0.3866940043307438
0.02030624,-0.4060163767634521
0.02030656,-0.4063495211157368
0.02030688,-0.4063495211157383
0.0203072,-0.3880265817400649
0.02030752,-0.3643733327276244
0.02030784,-0.3317251862032914
0.02030816,-0.2864175542925765
0.02030848,-0.2387779119152675
0.0203088,-0.1794782172085965
0.02030912,-0.1231768216718473
0.02030944,-0.057214239919423
0.02030976,0.007748908776800295
0.02031008,0.07304520182536733
0.0203104,0.1383414948731623
0.02031072,0.1996400556935971
0.02031104,0.2602723278100721
0.02031136,0.3109102693579058
0.02031168,0.3622144996097915
0.020312,0.3901986252020605
0.02031232,0.4215141943168479
0.02031264,0.4558280626025387
0.02031296,0.4921407970016005
0.02031328,0.4898087865356918
0.0203136,0.4531629077839819
0.02031392,0.417183317737205
0.02031424,0.377539139814871
0.02031456,0.3322315079041149
0.02031488,0.2809272776517033
0.0203152,0.2246258821155432
0.02031552,0.1623278882376285
0.02031584,0.09536587342841013
0.02031616,0.02740442556153846
0.02031648,-0.04022387795224923
0.0203168,-0.1088516145236926
0.02031712,-0.1718158971061658
0.02031744,-0.2317818805174606
0.02031776,-0.2834192551221085
0.02031808,-0.3263948765668307
0.0203184,-0.3613750335571211
0.02031872,-0.3886928704444639
0.02031904,-0.4103472533432016
0.02031936,-0.4183427177980336
0.02031968,-0.4200084395594858
0.02032,-0.4080152428772267
0.02032032,-0.3873602930353913
0.02032064,-0.3567110126247885
0.02032096,-0.3167336903506283
0.02032128,-0.2734249245530518
0.0203216,-0.2167903846646582
0.02032192,-0.1641535770030697
0.02032224,-0.1008561500689251
0.02032256,-0.03822501183871362
0.02032288,0.0290701473228506
0.0203232,0.09569901778050784
0.02032352,0.1556650011918027
0.02032384,0.2206281498879993
0.02032416,0.2715992357881266
0.02032448,0.3262349095628618
0.0203248,0.3588830560871429
0.02032512,0.39353006872478
0.02032544,0.4175164620895282
0.02032576,0.430842236180927
0.02032608,0.4395039893403999
0.0203264,0.4285102257150059
0.02032672,0.4161838846803171
0.02032704,0.3858677486224122
0.02032736,0.3522201690412811
0.02032768,0.3082451145391871
0.020328,0.2559414512304465
0.02032832,0.2023052105119871
0.02032864,0.1366757731119075
0.02032896,0.07171262441557813
0.02032928,-0.0112403193033043
0.0203296,-0.08952924209112824
0.02032992,-0.1591564117186239
0.02033024,-0.2214544055966193
0.02033056,-0.2754237906667356
0.02033088,-0.3303926087943003
0.0203312,-0.3683710649552291
0.02033152,-0.4090146759339587
0.02033184,-0.4310022031850261
0.02033216,-0.4489919982083982
0.02033248,-0.4526565860835839
0.0203328,-0.4459936990378905
0.02033312,-0.4333342136509328
0.02033344,-0.3943563244335911
0.02033376,-0.3527132803975652
0.02033408,-0.3047404936685293
0.0203344,-0.2561014182344405
0.02033472,-0.198467445288506
0.02033504,-0.1378351731726963
0.02033536,-0.07720290105620313
0.02033568,-0.008575164485499026
0.020336,0.05405597374472522
0.02033632,0.1203516998494345
0.02033664,0.1793182502044904
0.02033696,0.2376185118549755
0.02033728,0.2925873299819458
0.0203376,0.3308989304946827
0.02033792,0.369543675360159
0.02033824,0.3978609453046513
0.02033856,0.4198484725554593
0.02033888,0.4288433700672435
0.0203392,0.4291765144195286
0.02033952,0.41918218385089
0.02033984,0.3995266670660946
0.02034016,0.3702099640647329
0.02034048,0.3318983635515416
0.0203408,0.2869238759930704
0.02034112,0.235952790092928
0.02034144,0.177985672795343
0.02034176,0.1183528337357259
0.02034208,0.05538855115392359
0.0203424,-0.008242020133202233
0.02034272,-0.07320516882871257
0.02034304,-0.1361694514112569
0.02034336,-0.1938034243565046
0.02034368,-0.2494385311887032
0.020344,-0.2964118848613251
0.02034432,-0.3380549288969086
0.02034464,-0.3683710649551564
0.02034496,-0.3930237470242219
0.02034528,-0.4066826654680275
0.0203456,-0.4073489541725968
0.02034592,-0.4033512219451209
0.02034624,-0.3833625608080226
0.02034656,-0.3590430230909797
0.02034688,-0.3210645669304929
0.0203472,-0.2810872446559055
0.02034752,-0.2294498700511386
0.02034784,-0.171815897105891
0.02034816,-0.1135156354554044
0.02034848,-0.04588733194155518
0.0203488,0.01641066193638559
0.02034912,0.08537154285937468
0.02034944,0.1440049488621559
0.02034976,0.2089680975577254
0.02035008,0.2809272776519736
0.0203504,0.3528864577455275
0.02035072,0.393530068724843
0.02035104,0.4025249662366742
0.02035136,0.4218473386692025
0.02035168,0.4288433700672742
0.020352,0.4375051232266834
0.02035232,0.4328411022946405
0.02035264,0.4168501733849764
0.02035296,0.3965283678953581
0.02035328,0.3602156334963292
0.0203536,0.3265680539151523
0.02035392,0.2759301123678827
0.02035424,0.2262916038768747
0.02035456,0.1683244865786961
0.02035488,0.1073590701106018
0.0203552,0.05005824151692925
0.02035552,-0.01423861847401176
0.02035584,-0.07187259141998173
0.02035616,-0.1378351731723461
0.02035648,-0.1944697130614487
0.0203568,-0.2541025521204044
0.02035712,-0.3027416275545468
0.02035744,-0.3437183828855983
0.02035776,-0.3810305503419084
0.02035808,-0.4010192114792375
0.0203584,-0.4203415839117483
0.02035872,-0.4213410169686438
0.02035904,-0.4213410169686438
0.02035936,-0.4050169437065451
0.02035968,-0.3796979729328873
0.02036,-0.3483824038177958
0.02036032,-0.303074771906526
0.02036064,-0.2547688408252491
0.02036096,-0.1954691461185242
0.02036128,-0.1331711522406277
0.0203616,-0.07487089059014532
0.02036192,-0.009574597542290925
0.02036224,0.05705427291537208
0.02036256,0.1253488651337912
0.02036288,0.1876468590117162
0.0203632,0.2476128424230111
0.02036352,0.2975844952662882
0.02036384,0.3422258384728792
0.02036416,0.3792048615765111
0.02036448,0.4058564097592845
0.0203648,0.4248456378397839
0.02036512,0.4338405353515433
0.02036544,0.4335073909992583
0.02036576,0.4235130604305977
0.02036608,0.4028581105889483
0.0203664,0.3698768197123833
0.02036672,0.3162405789945518
0.02036704,0.2619380495715145
0.02036736,0.2106338193190957
0.02036768,0.1556650011920754
0.020368,0.09803102824617602
0.02036832,0.03539989001665836
0.02036864,-0.02723124821361195
0.02036896,-0.09319382996597629
0.02036928,-0.1551586794916636
0.0203696,-0.2154578072551886
0.02036992,-0.2724254914965368
0.02037024,-0.3207314225778138
0.02037056,-0.3633738996707425
0.02037088,-0.3866940043309232
0.0203712,-0.4060163767634339
0.02037152,-0.417010140388955
0.02037184,-0.4256718935483563
0.02037216,-0.4216741613208861
0.02037248,-0.4053500880589225
0.0203728,-0.3920243139673433
0.02037312,-0.3573773013297063
0.02037344,-0.3193988451688375
0.02037376,-0.2657626044509571
0.02037408,-0.2144583741985476
0.0203744,-0.151494091616099
0.02037472,-0.09752470654593362
0.02037504,-0.03256155784970852
0.02037536,0.03673246742556553
0.02037568,0.0983641725989276
0.020376,0.164326754351352
0.02037632,0.2179629950698038
0.02037664,0.2722655244922541
0.02037696,0.317906300755776
0.02037728,0.3555516125639436
0.0203776,0.3878666147359676
0.02037792,0.4061895541118289
0.02037824,0.4255119265443572
0.02037856,0.4241793491352264
0.02037888,0.4238462047829417
0.0203792,0.4078552758731149
0.02037952,0.3858677486223268
0.02037984,0.3582167673823651
0.02038016,0.315241145937643
0.02038048,0.2749306793106951
0.0203808,0.2189624281268708
0.02038112,0.1663256204653006
0.02038144,0.1036944822350469
0.02038176,0.04006391094867522
0.02038208,-0.02256722728159568
0.0203824,-0.08819666468167536
0.02038272,-0.1461637819799239
0.02038304,-0.2077954871525876
