Waveform_Captures/gravitest_4.csv

#Digilent WaveForms Oscilloscope Acquisition
#Device Name: Discovery2
#Serial Number: SN:210321AE0916
#Date Time: 2020-05-14 19:40:35.873
#Sample rate: 800000Hz
#Samples: 16384
#Trigger: Source: External 1 Condition: Rising
#Channel 1: Range: 200 mV/div Offset: 0 V Attenuation: 1 X
#Wavegen Channel 1: Running
#Mode: Simple
#Type: Pulse
#Frequency: 1 Hz
#Period: 1 s
#Amplitude: 5 V
#Offset: -5 mV
#Symmetry: 0.3 %
#Phase: 180 °
#Power Supplies: ON
#Positive Supply: ON
#Voltage: 5 V
#Negative Supply: OFF
#Voltage: -5 V

Time (s),Channel 1 (V)
0.013385,0.1463369593280453
0.01338625,-0.1501615142071973
0.0133875,-0.01623748458790793
0.01338875,0.05305654068774426
0.01339,-0.1558249681957679
0.01339125,0.1793182502044374
0.0133925,-0.1718158971058386
0.01339375,0.1003630387122208
0.013395,-0.02056836116763619
0.01339625,-0.08852980903414122
0.0133975,0.1543324237829282
0.01339875,-0.1871405373107097
0.0134,0.1659924761129659
0.01340125,-0.08952924209100159
0.0134025,0.01307921841323621
0.01340375,0.1086916475196381
0.013405,-0.1481626480934765
0.01340625,0.2043040766259466
0.0134075,-0.1564912569004293
0.01340875,0.08204009933669494
0.01341,-0.001912277439575984
0.01341125,-0.11151676934183
0.0134125,0.1646598987034969
0.01341375,-0.1891394034247516
0.013415,0.1486689697940528
0.01341625,-0.07487089059017957
0.0134175,-0.02889696997480592
0.01341875,0.1150213902130871
0.01342,-0.1788119285038611
0.01342125,0.1799845389086989
0.0134225,-0.1631541439463821
0.01342375,0.02473927074336717
0.013425,0.006416331367610415
0.01342625,-0.1578238343097934
0.0134275,0.1729885075109884
0.01342875,-0.1808107946175819
0.01343,0.1253488651338203
0.01343125,-0.04755305370286613
0.0134325,-0.06754171484007349
0.01343375,0.1356763400546832
0.013435,-0.1878068260152769
0.01343625,0.1723222188064149
0.0134375,-0.1111836249896429
0.01343875,0.03073586908440032
0.01344,0.09003556379157789
0.01344125,-0.1464969263320426
0.0134425,0.2039709322733411
0.01344375,-0.1348368740017895
0.013445,0.1020287604739023
0.01344625,-0.002578566144149563
0.0134475,-0.1078521814666793
0.01344875,0.1643267543515319
0.01345,-0.1911382695384723
0.01345125,0.1503346915554868
0.0134525,-0.07953491152234973
0.01345375,-0.0265649595087984
0.013455,0.1196854111451021
0.01345625,-0.1804776502650221
0.0134575,0.1803176832612978
0.01345875,-0.1411666166954539
0.01346,0.02640499250480111
0.01346125,0.0194089611066025
0.0134625,-0.1741479075718461
0.01346375,0.1669919091698262
0.013465,-0.1798113615604061
0.01346625,0.1173534006789634
0.0134675,-0.02689810386108519
0.01346875,-0.08419893245441296
0.01347,0.1539992794304248
0.01347125,-0.1918045582430459
0.0134725,0.1589964447149433
0.01347375,-0.09286068561386948
0.013475,0.001752310435682323
0.01347625,0.1156876789176607
0.0134775,-0.158490123014367
0.01347875,0.1999732000458924
0.01348,-0.120511666853673
0.01348125,0.1046939152921966
0.0134825,0.04606050928972168
0.01348375,-0.139834039286022
0.013485,0.1733216518632753
0.01348625,-0.1828096607313026
0.0134875,0.1200185554971135
0.01348875,-0.03456042396371861
0.01349,-0.07553717929495643
0.01349125,0.1516672689646339
0.0134925,-0.1901388364812887
0.01349375,0.1653261874083923
0.013495,-0.09852413960274491
0.01349625,-0.007575731428534113
0.0134975,0.07471092358612864
0.01349875,-0.2077954871528118
0.0135,0.1533329907260679
0.01350125,-0.1628209995938077
0.0135025,0.061385149494914
0.01350375,0.04039705530084627
0.013505,-0.1381683175248729
0.01350625,0.1783188171472471
0.0135075,-0.1844753824927365
0.01350875,0.1160208232699474
0.01351,-0.02956325867924711
0.01351125,-0.08086748893154506
0.0135125,0.1719890744541281
0.01351375,-0.1738147632195593
0.013515,0.1759868066813444
0.01351625,-0.07153944706751496
0.0135175,-0.003244854848723141
0.01351875,0.140007216634466
0.01352,-0.174147907571525
0.01352125,0.1789851058521507
0.0135225,-0.1444980602183218
0.01352375,0.04073019965296459
0.013525,0.05905313902890647
0.01352625,-0.1554918238437859
0.0135275,0.188313147715868
0.01352875,-0.1698170309918745
0.01353,0.09769788389417404
0.01353125,0.004084320901586225
0.0135325,-0.1098510475803921
0.01353375,0.1689907752835469
0.013535,-0.2114600750279665
0.01353625,0.1110236579856456
0.0135375,-0.08986238644326838
0.01353875,-0.06787485919236028
0.01354,0.137342061816302
0.01354125,-0.192803991299606
0.0135425,0.1716559301018413
0.01354375,-0.1108504806373561
0.013545,0.006083187015306961
0.01354625,0.09803102824621268
0.0135475,-0.1748141962764196
0.01354875,0.1866474259547468
0.01355,-0.1421660497520152
0.01355125,0.0783755114615242
0.0135525,0.06071886079034042
0.01355375,-0.1265082651948352
0.013555,0.2199618611831106
0.01355625,-0.1494952255026237
0.0135575,0.1140219571562267
0.01355875,-0.01357232976961361
0.01356,-0.1078521814665223
0.01356125,0.1699902083404073
0.0135625,-0.1938034243567667
0.01356375,0.1440049488617305
0.013565,-0.0638771269649188
0.01356625,-0.04921877546430008
0.0135675,0.1413397940437435
0.01356875,-0.1894725477767091
0.01357,0.1726553631587017
0.01357125,-0.1171802233308051
0.0135725,-0.03022954738403216
0.01357375,0.07137948006326407
0.013575,-0.207462342800525
0.01357625,0.1756536623292828
0.0135775,-0.1448312045704298
0.01357875,0.05172396327859711
0.01358,0.05239025198317068
0.01358125,-0.1544923907867373
0.0135825,0.1836491267838403
0.01358375,-0.1741479075718461
0.013585,0.09969675000789477
0.01358625,0.009414630538256974
0.0135875,-0.1058533153530543
0.01358875,0.1889794364207543
0.01359,-0.1748141962764196
0.01359125,0.15100098025991
0.0135925,-0.01423861847418719
0.01359375,-0.05854681732833018
0.013595,0.1583301560101724
0.01359625,-0.1994668783456421
0.0135975,0.1556650011920754
0.01359875,-0.08220006634069223
0.0136,-0.0295632586792374
0.01360125,0.1266814425431247
0.0136025,-0.1898056921293252
0.01360375,0.1779856727949558
0.013605,-0.1241762547286995
0.01360625,0.01674380628848422
0.0136075,0.09469958472359294
0.01360875,-0.1828096607310502
0.01361,0.1603290221240904
0.01361125,-0.1834759494358762
0.0136125,0.02640499250480111
0.01361375,0.04739308669868857
0.013615,-0.1508278029117708
0.01361625,0.1853148485455997
0.0136175,-0.1754804849806651
0.01361875,0.09170128555301182
0.01362,0.005416898310733382
0.01362125,-0.1251756877856881
0.0136225,0.1786519614995339
0.01362375,-0.1841422381404498
0.013625,0.1380083505208756
0.01362625,-0.01590434023548118
0.0136275,-0.07387145753352249
0.01362875,0.1809839719658714
0.01363,-0.1544923907869255
0.01363125,0.1739879405676313
0.0136325,-0.06520970437406597
0.01363375,-0.05987939473747733
0.013635,0.1393409279298415
0.01363625,-0.1944697130610106
0.0136375,0.1679913422266866
0.01363875,-0.10318816053476
0.01364,-0.01823635070170591
0.01364125,0.1193522667928154
0.0136425,-0.1868073929587441
0.01364375,0.1853148485455997
0.013645,-0.1288402756607173
0.01364625,0.009081486185888065
0.0136475,0.05905313902890647
0.01364875,-0.2084617758571421
0.01365,0.160995310828664
0.01365125,-0.1578238343097934
0.0136525,0.05072453022173674
0.01365375,0.05705427291498909
0.013655,-0.1591564117189406
0.01365625,0.1856479928978864
0.0136575,-0.1721490414578
0.01365875,0.08137381063207107
0.01366,0.02607184815251432
0.01366125,-0.1325048635359974
0.0136625,0.1966417565230166
0.01366375,-0.1704833196966914
0.013665,0.1236831433725436
0.01366625,0.01108035229971122
0.0136675,-0.07287202447641973
0.01366875,0.1936434573527694
0.01367,-0.190138836481612
0.01367125,0.1206848442016798
0.0136725,-0.04055702230484355
0.01367375,-0.08952924209100159
0.013675,0.1669919091698262
0.01367625,-0.1928039912995945
0.0136775,0.1500015472032
0.01367875,-0.06620913743092634
0.01368,-0.06354398261263444
0.01368125,0.1553318568397886
0.0136825,-0.1951360017659138
0.01368375,0.1523335576692075
0.013685,-0.116513934626194
0.01368625,-0.07520403494266964
0.0136875,0.1080253588150645
0.01368875,-0.2011326001067948
0.01369,0.1729885075107363
0.01369125,-0.1041875935916203
0.0136925,-0.01557119588333435
0.01369375,0.1126893797469629
0.013695,-0.1908051251861855
0.01369625,0.1803176832612978
0.0136975,-0.1245093990811145
0.01369875,0.01974210545914744
0.0137,0.1100242249287852
0.01370125,-0.169483886639831
0.0137025,0.2033046435687472
0.01370375,-0.1281739869562691
0.013705,0.06271772690406116
0.01370625,0.09603216213274009
0.0137075,-0.1731484745146606
0.01370875,0.1843154154887393
0.01371,-0.1568244012529331
0.01371125,0.04939195281240202
0.0137125,0.06205143819948757
0.01371375,-0.1628209995940952
0.013715,0.1889794364207543
0.01371625,-0.1658192987644604
0.0137175,0.07171262441580446
0.01371875,0.04672679799429526
0.01372,-0.1491620811501587
0.01372125,0.1736547962152139
0.0137225,-0.209128064561959
0.01372375,0.05305654068774426
0.013725,0.002085454787911847
0.01372625,-0.1448312045706086
0.0137275,0.1906451581821883
0.01372875,-0.1814770833221555
0.01373,0.09336700731437124
0.01373125,0.01141349665189559
0.0137325,-0.131505430479137
0.01373375,0.182982838079306
0.013735,-0.1844753824927365
0.01373625,0.1146882458608003
0.0137375,0.007748908776740908
0.01373875,-0.1015224387730515
0.01374,0.2003063443985051
0.01374125,-0.1724821858104121
0.0137425,0.1533329907257716
0.01374375,-0.006576298371688296
0.013745,-0.1135156354556504
0.01374625,0.1726553631587017
0.0137475,-0.2001331670498766
0.01374875,0.1283471643045587
0.01375,-0.02256722728135693
0.01375125,-0.1041875935915461
0.0137525,0.1769862397380918
0.01375375,-0.194802857413627
0.013755,0.1340106182934341
0.01375625,-0.03056269173609019
0.0137575,-0.08886295338642801
0.01375875,0.1496684028509132
0.01376,-0.2287835813468795
0.01376125,0.1093579362240487
0.0137625,-0.06987372530608102
0.01376375,-0.08519836551127333
0.013765,0.1689907752833157
0.01376625,-0.201132600107076
0.0137675,0.1440049488620377
0.01376875,-0.05255021898716797
0.01377,-0.08519836551104366
0.01377125,0.167325053522113
0.0137725,-0.1961354348227742
0.01377375,0.1586633003623338
0.013775,-0.03722557878199929
0.01377625,-0.06321083826034522
0.0137775,0.1779856727952903
0.01377875,-0.181810227674115
0.01378,0.1769862397384299
0.01378125,-0.04488789888457181
0.0137825,-0.07220573577208854
0.01378375,0.1539992794303167
0.013785,-0.2031314662207968
0.01378625,0.1513341246123471
0.0137875,-0.06021253908957172
0.01378875,-0.06920743660150744
0.01379,0.1646598987038187
0.01379125,-0.2021320331639364
0.0137925,0.1553318568395953
0.01379375,-0.05721423991918302
0.013795,-0.07153944706751496
0.01379625,0.1430055158049823
0.0137975,-0.2337807466308602
0.01379875,0.1193522667928154
0.0138,-0.07720290105639038
0.01380125,-0.07753604540845811
0.0138025,0.1633273212946715
0.01380375,-0.1971348678796346
0.013805,0.1503346915551708
0.01380625,-0.05454908510090901
0.0138075,-0.07686975670410359
0.01380875,0.160995310828664
0.01381,-0.1958022904701629
0.01381125,0.1606621664763772
0.0138125,-0.03955758924798318
0.01381375,-0.06221140520348486
0.013815,0.1826496937269717
0.01381625,-0.1841422381404498
0.0138175,0.1776525284430035
0.01381875,-0.03755872313406672
0.01382,-0.09119496385243554
0.01382125,0.1679913422266866
0.0138225,-0.20279832186851
0.01382375,0.1416729383958699
0.013825,-0.03456042396368134
0.01382625,-0.09719156219359774
0.0138275,0.176653095385894
0.01382875,-0.1971348678793328
0.01383,0.1346769069980077
0.01383125,-0.02356666033821729
0.0138325,-0.09852413960267674
0.01383375,0.1510009802600603
0.013835,-0.2284504369945928
0.01383625,0.09869731695073686
0.0138375,-0.04022387795261857
0.01383875,-0.1081853258190618
0.01384,0.1826496937273053
0.01384125,-0.1978011565838622
0.0138425,0.1193522667928154
0.01384375,-0.009907741894458928
0.013845,-0.1228436773196805
0.01384625,0.1886462920681212
0.0138475,-0.1921377025953327
0.01384875,0.1173534006790946
0.01385,0.02174097157287302
0.01385125,-0.1181796563876655
0.0138525,0.2113001080239692
0.01385375,-0.1604889891280877
0.013855,0.1330111852364838
0.01385625,0.03406731260739727
0.0138575,-0.1488289367980501
0.01385875,0.1883131477158741
0.01386,-0.1784787841513396
0.01386125,0.07970808887068741
0.0138625,0.0393976222439859
0.01386375,-0.1548255351390357
0.013865,0.1929771686481958
0.01386625,-0.1721490414581254
0.0138675,0.06838118089293657
0.01386875,0.06071886079013802
0.01387,-0.1618215665372349
0.01387125,0.1756536623292828
0.0138725,-0.1954691461178631
0.01387375,0.01674380628848422
0.013875,0.05705427291518574
0.01387625,-0.1824765163790159
0.0138775,0.1979743339321825
0.01387875,-0.1484957924457633
0.01388,0.02473927074336717
0.01388125,0.09736473954182119
0.0138825,-0.1921377025949842
0.01388375,0.1909783025344751
0.013885,-0.1248425434334013
0.01388625,0.01241292970886382
0.0138875,0.131012319122853
0.01388875,-0.1801445059130083
0.01389,0.1969749008752943
0.01389125,-0.08253321069288448
0.0138925,0.02140782722049927
0.01389375,0.1403403609868831
0.013895,-0.2011326001067654
0.01389625,0.1686576309312602
0.0138975,-0.09286068561386948
0.01389875,-0.04588733194143218
0.0139,0.1490021141460187
0.01390125,-0.2037977549253703
0.0139025,0.1669919091698262
0.01390375,-0.06387712696470885
0.013905,-0.06820800354464707
0.01390625,0.1686576309312602
0.0139075,-0.2094612089142457
0.01390875,0.1250157207815162
0.01391,-0.06687542613549992
0.01391125,-0.1305059974222767
0.0139125,0.1723222188061394
0.01391375,-0.2014657444590665
0.013915,0.1243494320771172
0.01391625,-0.004244287905583509
0.0139175,-0.1308391417744483
0.01391875,0.1893125807730411
0.01392,-0.1911382695384723
0.01392125,0.09469958472333301
0.0139225,0.03173530214123612
0.01392375,-0.1371688844680125
0.013925,0.2096343862625353
0.01392625,-0.1561581125480268
0.0139275,0.08570468721184962
0.01392875,0.0770429340523931
0.01393,-0.145830637627469
0.01393125,0.2003063443981767
0.0139325,-0.1608221334803745
0.01393375,0.03373416825511048
0.013935,0.09070185249609966
0.01393625,-0.1848085268450234
0.0139375,0.1953091791142033
0.01393875,-0.1358363070588653
0.01394,0.002418599140261962
0.01394125,0.12301685466797
0.0139425,-0.1988005896410685
0.01394375,0.1853148485452503
0.013945,-0.1071858927621687
0.01394625,-0.07120630271522817
0.0139475,0.1206848442019625
0.01394875,-0.2371121901537239
0.01395,0.1513341246123471
0.01395125,-0.0638771269649188
0.0139525,-0.07820233411325075
0.01395375,0.1726553631583575
0.013955,-0.2057966210390911
0.01395625,0.1363426287594416
0.0139575,-0.02356666033807187
0.01395875,-0.1131824911033636
0.01396,0.1919777355913354
0.01396125,-0.1831428050835894
0.0139625,0.1190191224404507
0.01396375,0.03340102390282369
0.013965,-0.126841409547122
0.01396625,0.2339539239791428
0.0139675,-0.1391677505815369
0.01396875,0.07670978970010631
0.01397,0.05338968504003105
0.01397125,-0.1764799180375134
0.0139725,0.1976411895802109
0.01397375,-0.1528266690254916
0.013975,0.0314021577889354
0.01397625,0.1003630387122014
0.0139775,-0.1931371356521931
0.01397875,0.1933103130004826
0.01398,-0.1171802233305227
0.01398125,-0.01323918541732682
0.0139825,0.1403403609868831
0.01398375,-0.2331144579266078
0.013985,0.1416729383958054
0.01398625,-0.1055201710007675
0.0139875,-0.07520403494266964
0.01398875,0.1726553631584762
0.01399,-0.2081286315050986
0.01399125,0.1423392271006038
0.0139925,-0.02923011432709271
0.01399375,-0.1151813572168032
0.013995,0.1939766017050562
0.01399625,-0.1924708469476195
0.0139975,0.1090247918716507
0.01399875,0.03806504483467755
0.014,-0.1391677505817332
0.01400125,0.2182961394219918
0.0140025,-0.1518272359682946
0.01400375,0.08137381063212136
0.014005,0.09669845083731367
0.01400625,-0.1808107946175819
0.0140075,0.1919777355910363
0.01400875,-0.1368357401157257
0.01401,0.007082620072167329
0.01401125,0.1213511329064322
0.0140125,-0.2007994557547892
0.01401375,0.1803176832612978
0.014015,-0.09119496385243554
0.01401625,-0.04555418758895632
0.0140175,0.1623278882378112
0.01401875,-0.2024651775162232
0.01402,0.1473363923845875
0.01402125,-0.07220573577208854
0.0140225,-0.1318385748314239
0.01402375,0.1586633003626565
0.014025,-0.2077954871525188
0.01402625,0.1143551015085135
0.0140275,0.01840952804991817
0.01402875,-0.1518272359684764
0.01403,0.1986406226367288
0.01403125,-0.1778124954470008
0.0140325,0.06105200514262721
0.01403375,0.08537154285954071
0.014035,-0.1761467736855668
0.01403625,0.2109669636716824
0.0140375,-0.1235099660242541
0.01403875,0.01108035229973576
0.01404,0.1506678359077736
0.01404125,-0.1624878552418085
0.0140425,0.2073023757961914
0.01404375,-0.07587032364724322
0.014045,-0.07287202447666212
0.01404625,0.1723222188064149
0.0140475,-0.209128064561642
0.01404875,0.1393409279300227
0.01405,-0.01257289671275324
0.01405125,-0.1255088321378721
0.0140525,0.2019720661595849
0.01405375,-0.1874736816633177
0.014055,0.08737040897328358
0.01405625,0.05772056161978628
0.0140575,-0.1798113615607215
0.01405875,0.1746542292724224
0.01406,-0.1824765163786911
0.01406125,-0.008575164485203906
0.0140625,0.1100242249287852
0.01406375,-0.1968017235273478
0.014065,0.1899788694772629
0.01406625,-0.09552584043216379
0.0140675,-0.04755305370286613
0.01406875,0.1569975786012225
0.01407,-0.2077954871524822
0.01407125,0.154665568135215
0.0140725,-0.02423294904279087
0.01407375,-0.09752470654581788
0.014075,0.2059697983873806
0.01407625,-0.1768130623901404
0.0140775,0.1176865450313814
0.01407875,0.08170695498419818
0.01408,-0.1491620811503369
0.01408125,0.2029714992167995
0.0140825,-0.1641535770029085
0.01408375,0.02873700297088136
0.014085,0.1086916475196381
0.01408625,-0.1988005896410685
0.0140875,0.1903120138295476
0.01408875,-0.1018555831256128
0.01409,-0.04188959971399071
0.01409125,0.1656593317606791
0.0140925,-0.2084617758570554
0.01409375,0.1543324237829282
0.014095,-0.03522671266825492
0.01409625,-0.1438317715136495
0.0140975,0.1693239196358338
0.01409875,-0.2184561064259891
0.0141,0.08570468721184962
0.01410125,0.04739308669866826
0.0141025,-0.1731484745149857
0.01410375,0.2056366540350938
0.014105,-0.1528266690251656
0.01410625,0.01607751758391064
0.0141075,0.1223505659633965
0.01410875,-0.2044640436299439
0.01411,0.1926440242956678
0.01411125,-0.07253888012437533
0.0141125,-0.05121764157802081
0.01411375,0.1946428904094061
0.014115,-0.1918045582427217
0.01411625,0.1646598987038187
0.0141175,0.01274607406104275
0.01411875,-0.1401671836384545
0.01412,0.2003063443985051
0.01412125,-0.1844753824927365
0.0141225,0.06371715996092152
0.01412375,0.08204009933644467
0.014125,-0.1931371356521931
0.01412625,0.2013057774553655
0.0141275,-0.1218442442625263
0.01412875,-0.02056836116763619
0.01413,0.1579970116580829
0.01413125,-0.207462342800525
0.0141325,0.1520004133167156
0.01413375,-0.0735383131812357
0.014135,-0.1405003279908804
0.01413625,0.1716559301015574
0.0141375,-0.2014657444590907
0.01413875,0.09769788389417404
0.01414,0.04739308669886885
0.01414125,-0.1738147632193581
0.0141425,0.2056366540350938
0.01414375,-0.1488289367980501
0.014145,0.01108035229946336
0.01414625,0.1300128860656933
0.0141475,-0.1991337339933553
0.01414875,0.1923108799436222
0.01415,-0.05754738427124259
0.01415125,-0.05987939473747733
0.0141525,0.2019720661599391
0.01415375,-0.172815330162699
0.014155,0.1330111852364719
0.01415625,0.02107468286821248
0.0141575,-0.1604889891280877
0.01415875,0.2056366540347608
0.01416,-0.1661524431169631
0.01416125,0.03240159084596332
0.0141625,0.112023091042506
0.01416375,-0.1964685791747059
0.014165,0.1939766017050562
0.01416625,-0.08852980903414122
0.0141675,-0.06054568344207636
0.01416875,0.178318817147212
0.01417,-0.2231201273580041
0.01417125,0.1043607709399098
0.0141725,-0.02823068127011176
0.01417375,-0.171149608401265
0.014175,0.1979743339324976
0.01417625,-0.1724821858104121
0.0141775,0.0523902519832131
0.01417875,0.0990304613033212
0.01418,-0.2001331670502157
0.01418125,0.1889794364204004
0.0141825,-0.1028550161824732
0.01418375,-0.04455475453228502
0.014185,0.1809839719658714
0.01418625,-0.1964685791747432
0.0141875,0.1529998463737811
0.01418875,0.01241292970875596
0.01419,-0.123176821671844
0.01419125,0.2366190787974035
0.0141925,-0.1611552778326613
0.01419375,0.05172396327859711
0.014195,0.09103499684817647
0.01419625,-0.1968017235273478
0.0141975,0.1936434573527694
